<?xml version="1.0" encoding="UTF-8"?><svg xmlns="http://www.w3.org/2000/svg" xmlns:xlink="http://www.w3.org/1999/xlink" fill-opacity="1" color-rendering="auto" color-interpolation="auto" text-rendering="auto" stroke="black" stroke-linecap="square" width="652" stroke-miterlimit="10" shape-rendering="auto" stroke-opacity="1" fill="black" stroke-dasharray="none" font-weight="normal" stroke-width="1" height="686" font-family="'Dialog'" font-style="normal" stroke-linejoin="miter" font-size="12px" stroke-dashoffset="0" image-rendering="auto">
  <!--Generated by ySVG 2.5-->
  <defs id="genericDefs"/>
  <g>
    <defs id="defs1">
      <linearGradient x1="57.5" gradientUnits="userSpaceOnUse" x2="82.2539" y1="-25" y2="19.7668" id="linearGradient1" spreadMethod="pad">
        <stop stop-opacity="0.8627" stop-color="rgb(255,255,255)" offset="0%"/>
        <stop stop-opacity="0.1255" stop-color="rgb(255,255,255)" offset="100%"/>
      </linearGradient>
      <linearGradient x1="57.5" gradientUnits="userSpaceOnUse" x2="82.2539" y1="170" y2="214.7668" id="linearGradient2" spreadMethod="pad">
        <stop stop-opacity="0.8627" stop-color="rgb(255,255,255)" offset="0%"/>
        <stop stop-opacity="0.1255" stop-color="rgb(255,255,255)" offset="100%"/>
      </linearGradient>
      <linearGradient x1="237.5" gradientUnits="userSpaceOnUse" x2="262.2539" y1="170" y2="214.7668" id="linearGradient3" spreadMethod="pad">
        <stop stop-opacity="0.8627" stop-color="rgb(255,255,255)" offset="0%"/>
        <stop stop-opacity="0.1255" stop-color="rgb(255,255,255)" offset="100%"/>
      </linearGradient>
      <linearGradient x1="57.5" gradientUnits="userSpaceOnUse" x2="82.2539" y1="262.5" y2="307.2668" id="linearGradient4" spreadMethod="pad">
        <stop stop-opacity="0.8627" stop-color="rgb(255,255,255)" offset="0%"/>
        <stop stop-opacity="0.1255" stop-color="rgb(255,255,255)" offset="100%"/>
      </linearGradient>
      <linearGradient x1="417.5" gradientUnits="userSpaceOnUse" x2="442.2539" y1="170" y2="214.7668" id="linearGradient5" spreadMethod="pad">
        <stop stop-opacity="0.8627" stop-color="rgb(255,255,255)" offset="0%"/>
        <stop stop-opacity="0.1255" stop-color="rgb(255,255,255)" offset="100%"/>
      </linearGradient>
      <linearGradient x1="597.5" gradientUnits="userSpaceOnUse" x2="622.2539" y1="170" y2="214.7668" id="linearGradient6" spreadMethod="pad">
        <stop stop-opacity="0.8627" stop-color="rgb(255,255,255)" offset="0%"/>
        <stop stop-opacity="0.1255" stop-color="rgb(255,255,255)" offset="100%"/>
      </linearGradient>
      <linearGradient x1="57.5" gradientUnits="userSpaceOnUse" x2="82.2539" y1="552.5" y2="597.2668" id="linearGradient7" spreadMethod="pad">
        <stop stop-opacity="0.8627" stop-color="rgb(255,255,255)" offset="0%"/>
        <stop stop-opacity="0.1255" stop-color="rgb(255,255,255)" offset="100%"/>
      </linearGradient>
      <linearGradient x1="237.5" gradientUnits="userSpaceOnUse" x2="262.2539" y1="462.5" y2="507.2668" id="linearGradient8" spreadMethod="pad">
        <stop stop-opacity="0.8627" stop-color="rgb(255,255,255)" offset="0%"/>
        <stop stop-opacity="0.1255" stop-color="rgb(255,255,255)" offset="100%"/>
      </linearGradient>
      <linearGradient x1="417.5" gradientUnits="userSpaceOnUse" x2="442.2539" y1="462.5" y2="507.2668" id="linearGradient9" spreadMethod="pad">
        <stop stop-opacity="0.8627" stop-color="rgb(255,255,255)" offset="0%"/>
        <stop stop-opacity="0.1255" stop-color="rgb(255,255,255)" offset="100%"/>
      </linearGradient>
      <linearGradient x1="597.5" gradientUnits="userSpaceOnUse" x2="622.2539" y1="462.5" y2="507.2668" id="linearGradient10" spreadMethod="pad">
        <stop stop-opacity="0.8627" stop-color="rgb(255,255,255)" offset="0%"/>
        <stop stop-opacity="0.1255" stop-color="rgb(255,255,255)" offset="100%"/>
      </linearGradient>
      <clipPath clipPathUnits="userSpaceOnUse" id="clipPath1">
        <path d="M0 0 L652 0 L652 686 L0 686 L0 0 Z"/>
      </clipPath>
      <clipPath clipPathUnits="userSpaceOnUse" id="clipPath2">
        <path d="M40 -118 L764.4445 -118 L764.4445 644.2222 L40 644.2222 L40 -118 Z"/>
      </clipPath>
    </defs>
    <g fill="white" text-rendering="geometricPrecision" shape-rendering="geometricPrecision" transform="scale(0.9,0.9) translate(-40,118)" stroke="white">
      <rect x="40" width="725" height="763" y="-118" clip-path="url(#clipPath2)" stroke="none"/>
    </g>
    <g fill="rgb(204,229,255)" text-rendering="geometricPrecision" shape-rendering="geometricPrecision" transform="matrix(0.9,0,0,0.9,-36,106.2)" stroke="rgb(204,229,255)">
      <rect x="57.5" y="-25" clip-path="url(#clipPath2)" width="150" rx="2.5" ry="2.5" height="75" stroke="none"/>
    </g>
    <g stroke-linecap="butt" transform="matrix(0.9,0,0,0.9,-36,106.2)" fill="rgb(51,102,255)" text-rendering="geometricPrecision" shape-rendering="geometricPrecision" stroke="rgb(51,102,255)" stroke-miterlimit="1.45">
      <rect x="57.5" y="-25" clip-path="url(#clipPath2)" fill="none" width="150" rx="2.5" ry="2.5" height="75"/>
    </g>
    <g fill="url(#linearGradient1)" text-rendering="geometricPrecision" shape-rendering="geometricPrecision" transform="matrix(0.9,0,0,0.9,-36,106.2)" stroke="url(#linearGradient1)">
      <path d="M58.75 -20 Q58.75 -23.75 62.5 -23.75 L150 -23.75 Q153.75 -23.75 153.75 -20 Q153.75 -16.25 110 8.75 Q66.25 33.75 62.5 33.75 Q58.75 33.75 58.75 30 Z" stroke="none" clip-path="url(#clipPath2)"/>
    </g>
    <g font-size="14px" stroke-linecap="butt" transform="matrix(0.9,0,0,0.9,-36,106.2)" text-rendering="geometricPrecision" font-family="sans-serif" shape-rendering="geometricPrecision" font-style="italic" stroke-miterlimit="1.45">
      <text x="67.3809" xml:space="preserve" y="1.3027" clip-path="url(#clipPath2)" stroke="none">download template</text>
      <text x="125.3359" xml:space="preserve" y="17.791" clip-path="url(#clipPath2)" stroke="none">or</text>
      <text x="72.9487" xml:space="preserve" y="34.2793" clip-path="url(#clipPath2)" stroke="none">download sample</text>
    </g>
    <g fill="rgb(255,204,153)" text-rendering="geometricPrecision" shape-rendering="geometricPrecision" transform="matrix(0.9,0,0,0.9,-36,106.2)" stroke="rgb(255,204,153)">
      <rect x="57.5" y="170" clip-path="url(#clipPath2)" width="150" rx="2.5" ry="2.5" height="75" stroke="none"/>
    </g>
    <g stroke-linecap="butt" transform="matrix(0.9,0,0,0.9,-36,106.2)" fill="rgb(255,102,0)" text-rendering="geometricPrecision" shape-rendering="geometricPrecision" stroke="rgb(255,102,0)" stroke-miterlimit="1.45">
      <rect x="57.5" y="170" clip-path="url(#clipPath2)" fill="none" width="150" rx="2.5" ry="2.5" height="75"/>
    </g>
    <g fill="url(#linearGradient2)" text-rendering="geometricPrecision" shape-rendering="geometricPrecision" transform="matrix(0.9,0,0,0.9,-36,106.2)" stroke="url(#linearGradient2)">
      <path d="M58.75 175 Q58.75 171.25 62.5 171.25 L150 171.25 Q153.75 171.25 153.75 175 Q153.75 178.75 110 203.75 Q66.25 228.75 62.5 228.75 Q58.75 228.75 58.75 225 Z" stroke="none" clip-path="url(#clipPath2)"/>
    </g>
    <g font-size="14px" stroke-linecap="butt" transform="matrix(0.9,0,0,0.9,-36,106.2)" text-rendering="geometricPrecision" font-family="sans-serif" shape-rendering="geometricPrecision" stroke-miterlimit="1.45">
      <text x="66.1128" xml:space="preserve" y="204.5469" clip-path="url(#clipPath2)" stroke="none">load map definition</text>
      <text x="96.2593" xml:space="preserve" y="221.0352" clip-path="url(#clipPath2)" stroke="none">(YAML file)</text>
    </g>
    <g fill="rgb(255,204,153)" text-rendering="geometricPrecision" shape-rendering="geometricPrecision" transform="matrix(0.9,0,0,0.9,-36,106.2)" stroke="rgb(255,204,153)">
      <rect x="237.5" y="170" clip-path="url(#clipPath2)" width="150" rx="2.5" ry="2.5" height="75" stroke="none"/>
    </g>
    <g stroke-linecap="butt" transform="matrix(0.9,0,0,0.9,-36,106.2)" fill="rgb(255,102,0)" text-rendering="geometricPrecision" shape-rendering="geometricPrecision" stroke="rgb(255,102,0)" stroke-miterlimit="1.45">
      <rect x="237.5" y="170" clip-path="url(#clipPath2)" fill="none" width="150" rx="2.5" ry="2.5" height="75"/>
    </g>
    <g fill="url(#linearGradient3)" text-rendering="geometricPrecision" shape-rendering="geometricPrecision" transform="matrix(0.9,0,0,0.9,-36,106.2)" stroke="url(#linearGradient3)">
      <path d="M238.75 175 Q238.75 171.25 242.5 171.25 L330 171.25 Q333.75 171.25 333.75 175 Q333.75 178.75 290 203.75 Q246.25 228.75 242.5 228.75 Q238.75 228.75 238.75 225 Z" stroke="none" clip-path="url(#clipPath2)"/>
    </g>
    <g font-size="14px" stroke-linecap="butt" transform="matrix(0.9,0,0,0.9,-36,106.2)" text-rendering="geometricPrecision" font-family="sans-serif" shape-rendering="geometricPrecision" stroke-miterlimit="1.45">
      <text x="247.7603" xml:space="preserve" y="212.791" clip-path="url(#clipPath2)" stroke="none">edit map definition</text>
    </g>
    <g fill="silver" text-rendering="geometricPrecision" shape-rendering="geometricPrecision" transform="matrix(0.9,0,0,0.9,-36,106.2)" stroke="silver">
      <rect x="57.5" y="262.5" clip-path="url(#clipPath2)" width="150" rx="2.5" ry="2.5" height="75" stroke="none"/>
    </g>
    <g stroke-linecap="butt" transform="matrix(0.9,0,0,0.9,-36,106.2)" fill="gray" text-rendering="geometricPrecision" shape-rendering="geometricPrecision" stroke="gray" stroke-miterlimit="1.45">
      <rect x="57.5" y="262.5" clip-path="url(#clipPath2)" fill="none" width="150" rx="2.5" ry="2.5" height="75"/>
    </g>
    <g fill="url(#linearGradient4)" text-rendering="geometricPrecision" shape-rendering="geometricPrecision" transform="matrix(0.9,0,0,0.9,-36,106.2)" stroke="url(#linearGradient4)">
      <path d="M58.75 267.5 Q58.75 263.75 62.5 263.75 L150 263.75 Q153.75 263.75 153.75 267.5 Q153.75 271.25 110 296.25 Q66.25 321.25 62.5 321.25 Q58.75 321.25 58.75 317.5 Z" stroke="none" clip-path="url(#clipPath2)"/>
    </g>
    <g font-size="14px" stroke-linecap="butt" transform="matrix(0.9,0,0,0.9,-36,106.2)" text-rendering="geometricPrecision" font-family="sans-serif" shape-rendering="geometricPrecision" stroke-miterlimit="1.45">
      <text x="71.4072" xml:space="preserve" y="297.0469" clip-path="url(#clipPath2)" stroke="none">upload user file(s)</text>
      <text x="100.0669" xml:space="preserve" y="313.5352" clip-path="url(#clipPath2)" stroke="none">(optional)</text>
    </g>
    <g fill="rgb(255,204,153)" text-rendering="geometricPrecision" shape-rendering="geometricPrecision" transform="matrix(0.9,0,0,0.9,-36,106.2)" stroke="rgb(255,204,153)">
      <rect x="417.5" y="170" clip-path="url(#clipPath2)" width="150" rx="2.5" ry="2.5" height="75" stroke="none"/>
    </g>
    <g stroke-linecap="butt" transform="matrix(0.9,0,0,0.9,-36,106.2)" fill="rgb(255,102,0)" text-rendering="geometricPrecision" shape-rendering="geometricPrecision" stroke="rgb(255,102,0)" stroke-miterlimit="1.45">
      <rect x="417.5" y="170" clip-path="url(#clipPath2)" fill="none" width="150" rx="2.5" ry="2.5" height="75"/>
    </g>
    <g fill="url(#linearGradient5)" text-rendering="geometricPrecision" shape-rendering="geometricPrecision" transform="matrix(0.9,0,0,0.9,-36,106.2)" stroke="url(#linearGradient5)">
      <path d="M418.75 175 Q418.75 171.25 422.5 171.25 L510 171.25 Q513.75 171.25 513.75 175 Q513.75 178.75 470 203.75 Q426.25 228.75 422.5 228.75 Q418.75 228.75 418.75 225 Z" stroke="none" clip-path="url(#clipPath2)"/>
    </g>
    <g font-size="14px" stroke-linecap="butt" transform="matrix(0.9,0,0,0.9,-36,106.2)" text-rendering="geometricPrecision" font-family="sans-serif" shape-rendering="geometricPrecision" stroke-miterlimit="1.45">
      <text x="458.2759" xml:space="preserve" y="212.791" clip-path="url(#clipPath2)" stroke="none">build map</text>
    </g>
    <g fill="rgb(255,204,153)" text-rendering="geometricPrecision" shape-rendering="geometricPrecision" transform="matrix(0.9,0,0,0.9,-36,106.2)" stroke="rgb(255,204,153)">
      <rect x="597.5" y="170" clip-path="url(#clipPath2)" width="150" rx="2.5" ry="2.5" height="75" stroke="none"/>
    </g>
    <g stroke-linecap="butt" transform="matrix(0.9,0,0,0.9,-36,106.2)" fill="rgb(255,102,0)" text-rendering="geometricPrecision" shape-rendering="geometricPrecision" stroke="rgb(255,102,0)" stroke-miterlimit="1.45">
      <rect x="597.5" y="170" clip-path="url(#clipPath2)" fill="none" width="150" rx="2.5" ry="2.5" height="75"/>
    </g>
    <g fill="url(#linearGradient6)" text-rendering="geometricPrecision" shape-rendering="geometricPrecision" transform="matrix(0.9,0,0,0.9,-36,106.2)" stroke="url(#linearGradient6)">
      <path d="M598.75 175 Q598.75 171.25 602.5 171.25 L690 171.25 Q693.75 171.25 693.75 175 Q693.75 178.75 650 203.75 Q606.25 228.75 602.5 228.75 Q598.75 228.75 598.75 225 Z" stroke="none" clip-path="url(#clipPath2)"/>
    </g>
    <g font-size="14px" stroke-linecap="butt" transform="matrix(0.9,0,0,0.9,-36,106.2)" text-rendering="geometricPrecision" font-family="sans-serif" shape-rendering="geometricPrecision" stroke-miterlimit="1.45">
      <text x="622.4404" xml:space="preserve" y="212.791" clip-path="url(#clipPath2)" stroke="none">download map</text>
    </g>
    <g fill="silver" text-rendering="geometricPrecision" shape-rendering="geometricPrecision" transform="matrix(0.9,0,0,0.9,-36,106.2)" stroke="silver">
      <rect x="57.5" y="552.5" clip-path="url(#clipPath2)" width="150" rx="2.5" ry="2.5" height="75" stroke="none"/>
    </g>
    <g stroke-linecap="butt" transform="matrix(0.9,0,0,0.9,-36,106.2)" fill="gray" text-rendering="geometricPrecision" shape-rendering="geometricPrecision" stroke="gray" stroke-miterlimit="1.45">
      <rect x="57.5" y="552.5" clip-path="url(#clipPath2)" fill="none" width="150" rx="2.5" ry="2.5" height="75"/>
    </g>
    <g fill="url(#linearGradient7)" text-rendering="geometricPrecision" shape-rendering="geometricPrecision" transform="matrix(0.9,0,0,0.9,-36,106.2)" stroke="url(#linearGradient7)">
      <path d="M58.75 557.5 Q58.75 553.75 62.5 553.75 L150 553.75 Q153.75 553.75 153.75 557.5 Q153.75 561.25 110 586.25 Q66.25 611.25 62.5 611.25 Q58.75 611.25 58.75 607.5 Z" stroke="none" clip-path="url(#clipPath2)"/>
    </g>
    <g font-size="14px" stroke-linecap="butt" transform="matrix(0.9,0,0,0.9,-36,106.2)" text-rendering="geometricPrecision" font-family="sans-serif" shape-rendering="geometricPrecision" stroke-miterlimit="1.45">
      <text x="71.4072" xml:space="preserve" y="587.0469" clip-path="url(#clipPath2)" stroke="none">upload user file(s)</text>
      <text x="102.0903" xml:space="preserve" y="603.5352" clip-path="url(#clipPath2)" stroke="none">(optonal)</text>
    </g>
    <g fill="rgb(255,204,153)" text-rendering="geometricPrecision" shape-rendering="geometricPrecision" transform="matrix(0.9,0,0,0.9,-36,106.2)" stroke="rgb(255,204,153)">
      <rect x="237.5" y="462.5" clip-path="url(#clipPath2)" width="150" rx="2.5" ry="2.5" height="75" stroke="none"/>
    </g>
    <g stroke-linecap="butt" transform="matrix(0.9,0,0,0.9,-36,106.2)" fill="rgb(255,102,0)" text-rendering="geometricPrecision" shape-rendering="geometricPrecision" stroke="rgb(255,102,0)" stroke-miterlimit="1.45">
      <rect x="237.5" y="462.5" clip-path="url(#clipPath2)" fill="none" width="150" rx="2.5" ry="2.5" height="75"/>
    </g>
    <g fill="url(#linearGradient8)" text-rendering="geometricPrecision" shape-rendering="geometricPrecision" transform="matrix(0.9,0,0,0.9,-36,106.2)" stroke="url(#linearGradient8)">
      <path d="M238.75 467.5 Q238.75 463.75 242.5 463.75 L330 463.75 Q333.75 463.75 333.75 467.5 Q333.75 471.25 290 496.25 Q246.25 521.25 242.5 521.25 Q238.75 521.25 238.75 517.5 Z" stroke="none" clip-path="url(#clipPath2)"/>
    </g>
    <g font-size="14px" stroke-linecap="butt" transform="matrix(0.9,0,0,0.9,-36,106.2)" text-rendering="geometricPrecision" font-family="sans-serif" shape-rendering="geometricPrecision" stroke-miterlimit="1.45">
      <text x="247.7603" xml:space="preserve" y="505.291" clip-path="url(#clipPath2)" stroke="none">edit map definition</text>
    </g>
    <g fill="rgb(255,204,153)" text-rendering="geometricPrecision" shape-rendering="geometricPrecision" transform="matrix(0.9,0,0,0.9,-36,106.2)" stroke="rgb(255,204,153)">
      <rect x="417.5" y="462.5" clip-path="url(#clipPath2)" width="150" rx="2.5" ry="2.5" height="75" stroke="none"/>
    </g>
    <g stroke-linecap="butt" transform="matrix(0.9,0,0,0.9,-36,106.2)" fill="rgb(255,102,0)" text-rendering="geometricPrecision" shape-rendering="geometricPrecision" stroke="rgb(255,102,0)" stroke-miterlimit="1.45">
      <rect x="417.5" y="462.5" clip-path="url(#clipPath2)" fill="none" width="150" rx="2.5" ry="2.5" height="75"/>
    </g>
    <g fill="url(#linearGradient9)" text-rendering="geometricPrecision" shape-rendering="geometricPrecision" transform="matrix(0.9,0,0,0.9,-36,106.2)" stroke="url(#linearGradient9)">
      <path d="M418.75 467.5 Q418.75 463.75 422.5 463.75 L510 463.75 Q513.75 463.75 513.75 467.5 Q513.75 471.25 470 496.25 Q426.25 521.25 422.5 521.25 Q418.75 521.25 418.75 517.5 Z" stroke="none" clip-path="url(#clipPath2)"/>
    </g>
    <g font-size="14px" stroke-linecap="butt" transform="matrix(0.9,0,0,0.9,-36,106.2)" text-rendering="geometricPrecision" font-family="sans-serif" shape-rendering="geometricPrecision" stroke-miterlimit="1.45">
      <text x="458.2759" xml:space="preserve" y="505.291" clip-path="url(#clipPath2)" stroke="none">build map</text>
    </g>
    <g fill="rgb(255,204,153)" text-rendering="geometricPrecision" shape-rendering="geometricPrecision" transform="matrix(0.9,0,0,0.9,-36,106.2)" stroke="rgb(255,204,153)">
      <rect x="597.5" y="462.5" clip-path="url(#clipPath2)" width="150" rx="2.5" ry="2.5" height="75" stroke="none"/>
    </g>
    <g stroke-linecap="butt" transform="matrix(0.9,0,0,0.9,-36,106.2)" fill="rgb(255,102,0)" text-rendering="geometricPrecision" shape-rendering="geometricPrecision" stroke="rgb(255,102,0)" stroke-miterlimit="1.45">
      <rect x="597.5" y="462.5" clip-path="url(#clipPath2)" fill="none" width="150" rx="2.5" ry="2.5" height="75"/>
    </g>
    <g fill="url(#linearGradient10)" text-rendering="geometricPrecision" shape-rendering="geometricPrecision" transform="matrix(0.9,0,0,0.9,-36,106.2)" stroke="url(#linearGradient10)">
      <path d="M598.75 467.5 Q598.75 463.75 602.5 463.75 L690 463.75 Q693.75 463.75 693.75 467.5 Q693.75 471.25 650 496.25 Q606.25 521.25 602.5 521.25 Q598.75 521.25 598.75 517.5 Z" stroke="none" clip-path="url(#clipPath2)"/>
    </g>
    <g font-size="14px" stroke-linecap="butt" transform="matrix(0.9,0,0,0.9,-36,106.2)" text-rendering="geometricPrecision" font-family="sans-serif" shape-rendering="geometricPrecision" stroke-miterlimit="1.45">
      <text x="622.4404" xml:space="preserve" y="505.291" clip-path="url(#clipPath2)" stroke="none">download map</text>
    </g>
    <g fill="white" text-rendering="geometricPrecision" shape-rendering="geometricPrecision" transform="matrix(0.9,0,0,0.9,-36,106.2)" stroke="white">
      <path d="M57.5 -91 Q57.5 -101 67.5 -101 L390.5 -101 Q400.5 -101 400.5 -91 L400.5 -65 Q400.5 -55 390.5 -55 L67.5 -55 Q57.5 -55 57.5 -65 Z" stroke="none" clip-path="url(#clipPath2)"/>
    </g>
    <g stroke-linecap="butt" transform="matrix(0.9,0,0,0.9,-36,106.2)" fill="rgb(51,51,51)" text-rendering="geometricPrecision" shape-rendering="geometricPrecision" stroke="rgb(51,51,51)" stroke-miterlimit="1.45">
      <path fill="none" d="M57.5 -91 Q57.5 -101 67.5 -101 L390.5 -101 Q400.5 -101 400.5 -91 L400.5 -65 Q400.5 -55 390.5 -55 L67.5 -55 Q57.5 -55 57.5 -65 Z" clip-path="url(#clipPath2)"/>
    </g>
    <g font-size="16px" stroke-linecap="butt" transform="matrix(0.9,0,0,0.9,-36,106.2)" text-rendering="geometricPrecision" font-family="sans-serif" shape-rendering="geometricPrecision" font-style="italic" stroke-miterlimit="1.45">
      <text x="80.4961" xml:space="preserve" y="-71.9531" clip-path="url(#clipPath2)" stroke="none">1. Download map template or sample.</text>
    </g>
    <g fill="white" text-rendering="geometricPrecision" shape-rendering="geometricPrecision" transform="matrix(0.9,0,0,0.9,-36,106.2)" stroke="white">
      <path d="M57.5 104 Q57.5 94 67.5 94 L390.5 94 Q400.5 94 400.5 104 L400.5 130 Q400.5 140 390.5 140 L67.5 140 Q57.5 140 57.5 130 Z" stroke="none" clip-path="url(#clipPath2)"/>
    </g>
    <g stroke-linecap="butt" transform="matrix(0.9,0,0,0.9,-36,106.2)" fill="rgb(51,51,51)" text-rendering="geometricPrecision" shape-rendering="geometricPrecision" stroke="rgb(51,51,51)" stroke-miterlimit="1.45">
      <path fill="none" d="M57.5 104 Q57.5 94 67.5 94 L390.5 94 Q400.5 94 400.5 104 L400.5 130 Q400.5 140 390.5 140 L67.5 140 Q57.5 140 57.5 130 Z" clip-path="url(#clipPath2)"/>
    </g>
    <g font-size="16px" stroke-linecap="butt" transform="matrix(0.9,0,0,0.9,-36,106.2)" text-rendering="geometricPrecision" font-family="sans-serif" shape-rendering="geometricPrecision" font-style="italic" stroke-miterlimit="1.45">
      <text x="85.9297" xml:space="preserve" y="123.0469" clip-path="url(#clipPath2)" stroke="none">2. Build and download map.</text>
    </g>
    <g fill="white" text-rendering="geometricPrecision" shape-rendering="geometricPrecision" transform="matrix(0.9,0,0,0.9,-36,106.2)" stroke="white">
      <path d="M57.5 394 Q57.5 384 67.5 384 L390.5 384 Q400.5 384 400.5 394 L400.5 420 Q400.5 430 390.5 430 L67.5 430 Q57.5 430 57.5 420 Z" stroke="none" clip-path="url(#clipPath2)"/>
    </g>
    <g stroke-linecap="butt" transform="matrix(0.9,0,0,0.9,-36,106.2)" fill="rgb(51,51,51)" text-rendering="geometricPrecision" shape-rendering="geometricPrecision" stroke="rgb(51,51,51)" stroke-miterlimit="1.45">
      <path fill="none" d="M57.5 394 Q57.5 384 67.5 384 L390.5 384 Q400.5 384 400.5 394 L400.5 420 Q400.5 430 390.5 430 L67.5 430 Q57.5 430 57.5 420 Z" clip-path="url(#clipPath2)"/>
    </g>
    <g font-size="16px" stroke-linecap="butt" transform="matrix(0.9,0,0,0.9,-36,106.2)" text-rendering="geometricPrecision" font-family="sans-serif" shape-rendering="geometricPrecision" font-style="italic" stroke-miterlimit="1.45">
      <text x="83.3398" xml:space="preserve" y="413.0469" clip-path="url(#clipPath2)" stroke="none">3. Improve, build and download map.</text>
    </g>
    <g text-rendering="geometricPrecision" stroke-miterlimit="1.45" shape-rendering="geometricPrecision" transform="matrix(0.9,0,0,0.9,-36,106.2)" stroke-linecap="butt">
      <path fill="none" d="M207.5146 207.5 L226.4775 207.5" clip-path="url(#clipPath2)"/>
    </g>
    <g text-rendering="geometricPrecision" stroke-miterlimit="1.45" shape-rendering="geometricPrecision" transform="matrix(0.9,0,0,0.9,-36,106.2)" stroke-linecap="butt">
      <path d="M237.4775 207.5 L225.4775 201.5 L225.4775 213.5 Z" stroke="none" clip-path="url(#clipPath2)"/>
      <path fill="none" d="M387.5073 207.5 L406.4766 207.5" clip-path="url(#clipPath2)"/>
      <path d="M417.4766 207.5 L405.4766 201.5 L405.4766 213.5 Z" clip-path="url(#clipPath2)" stroke="none"/>
      <path fill="none" d="M567.5146 207.5 L586.4775 207.5" clip-path="url(#clipPath2)"/>
      <path d="M597.4775 207.5 L585.4775 201.5 L585.4775 213.5 Z" clip-path="url(#clipPath2)" stroke="none"/>
      <path fill="none" d="M387.4774 500 L406.5039 500" clip-path="url(#clipPath2)"/>
      <path d="M417.5039 500 L405.5039 494 L405.5039 506 Z" clip-path="url(#clipPath2)" stroke="none"/>
      <path fill="none" d="M567.5146 500 L586.4775 500" clip-path="url(#clipPath2)"/>
      <path d="M597.4775 500 L585.4775 494 L585.4775 506 Z" clip-path="url(#clipPath2)" stroke="none"/>
    </g>
  </g>
</svg>
