<?xml version="1.0" encoding="utf-8"?>
<!-- Generator: Adobe Illustrator 18.1.0, SVG Export Plug-In . SVG Version: 6.00 Build 0)  -->
<svg version="1.1" id="Layer_1" xmlns="http://www.w3.org/2000/svg" xmlns:xlink="http://www.w3.org/1999/xlink" x="0px" y="0px"
	width="64px" height="128px" viewBox="0 0 64 128" enable-background="new 0 0 64 128" xml:space="preserve">
<rect width="64px" height="128px" fill="green" opacity="0.0" />
<g>
	<path fill="#5290C7" d="M61.1,0H8.9C7.3,0,6,1.3,6,2.9v38.1C6,42.7,7.3,44,8.9,44h29.4l-6.3,20l26.3-20h2.7c1.6,0,2.9-1.3,2.9-2.9
		V2.9C64,1.3,62.7,0,61.1,0z"/>
	<rect x="11" y="5" fill="#FFFFFF" width="48" height="34"/>
</g>
</svg>
