<?xml version="1.0" encoding="utf-8"?>
<!-- Generator: Adobe Illustrator 18.1.0, SVG Export Plug-In . SVG Version: 6.00 Build 0)  -->
<svg version="1.1" id="Layer_1" xmlns="http://www.w3.org/2000/svg" xmlns:xlink="http://www.w3.org/1999/xlink" x="0px" y="0px"
	width="64px" height="128px" viewBox="0 0 64 128" enable-background="new 0 0 64 128" xml:space="preserve">
<rect width="64px" height="128px" fill="green" opacity="0.0" />
<g>
	<path fill="#C2D417" d="M54.2,22.2L32.8,0.8c-0.2-0.2-0.5-0.3-0.8-0.3V9l14,14L32,37v27l6.4-20.6c1.1-3.5,3-6.7,5.6-9.3l10.2-10.2
		C54.6,23.4,54.6,22.6,54.2,22.2z"/>
	<path fill="#D1E03A" d="M18,23L32,9V0.5c-0.3,0-0.6,0.1-0.8,0.3L9.8,22.2c-0.4,0.4-0.4,1.1,0,1.6L20,34c2.6,2.6,4.5,5.8,5.6,9.3
		L32,64V37L18,23z"/>
</g>
</svg>
