<?xml version="1.0" encoding="utf-8"?>
<!-- Generator: Adobe Illustrator 18.1.0, SVG Export Plug-In . SVG Version: 6.00 Build 0)  -->
<svg version="1.1" id="Layer_1" xmlns="http://www.w3.org/2000/svg" xmlns:xlink="http://www.w3.org/1999/xlink" x="0px" y="0px"
	width="64px" height="128px" viewBox="0 0 64 128" enable-background="new 0 0 64 128" xml:space="preserve">
<rect width="64px" height="128px" fill="green" opacity="0.0" />
<g>
	<polygon fill="#A3A4A6" points="18.9,-0.2 30.8,33.8 44,29.2 31.6,63.2 29.3,61.5 9.3,4.7 10.4,2.8 	"/>
	<polygon fill="#AFB0B3" points="13.8,39.8 1.9,5.8 10.4,2.8 31.6,63.2 0.6,44.4 	"/>
</g>
</svg>
