<?xml version="1.0" encoding="utf-8"?>
<!-- Generator: Adobe Illustrator 18.1.0, SVG Export Plug-In . SVG Version: 6.00 Build 0)  -->
<svg version="1.1" id="Layer_1" xmlns="http://www.w3.org/2000/svg" xmlns:xlink="http://www.w3.org/1999/xlink" x="0px" y="0px"
	width="64px" height="128px" viewBox="0 0 64 128" enable-background="new 0 0 64 128" xml:space="preserve">
<rect width="64px" height="128px" fill="green" opacity="0.0" />
<g>
	<path fill="#4D4D4D" d="M32,64L32,64c-1.1,0-2-0.9-2-2V2c0-1.1,0.9-2,2-2h0c1.1,0,2,0.9,2,2v60C34,63.1,33.1,64,32,64z"/>
	<g>
		<rect x="33" y="2" fill="#81BDE3" width="11" height="24"/>
		<path fill="#81BDE3" d="M52,6C52,6,52,6,52,6l0,24c0,0,0,0,0,0h12V6H52z"/>
		<path fill="#90CAF0" d="M48.8,4.7l-1.5-1.4c-0.9-0.8-2-1.3-3.2-1.3H44v24h0.1c1.2,0,2.3,0.5,3.2,1.3l1.5,1.4
			c0.9,0.8,2,1.3,3.2,1.3V6C50.8,6,49.7,5.5,48.8,4.7z"/>
	</g>
	<rect x="30" y="2" fill="#90CAF0" width="4" height="24"/>
</g>
</svg>
