<?xml version="1.0" encoding="utf-8"?>
<!-- Generator: Adobe Illustrator 18.1.0, SVG Export Plug-In . SVG Version: 6.00 Build 0)  -->
<svg version="1.1" id="Layer_1" xmlns="http://www.w3.org/2000/svg" xmlns:xlink="http://www.w3.org/1999/xlink" x="0px" y="0px"
	width="64px" height="128px" viewBox="0 0 64 128" enable-background="new 0 0 64 128" xml:space="preserve">
<rect width="64px" height="128px" fill="green" opacity="0.0" />
<g>
	<path fill="#4D4D4D" d="M32.7,63.9c-0.6,0.3-1.3,0-1.6-0.6l0,0L7.9,11.8c-0.3-0.6,0-1.3,0.6-1.6l0,0c0.6-0.3,1.3,0,1.6,0.6l0,0
		l23.3,51.5c0.2,0.5,0.1,1-0.3,1.4l0,0C32.9,63.8,32.8,63.8,32.7,63.9L32.7,63.9z"/>
	<path fill="#FAD75F" d="M11,13.9l11.8,26.2c0,0,3.8-6,8.6-8.2c5.7-2.7,16.2-2.3,21-8.4C58.8,15.2,56.3,0,56.3,0s-3.6,6-12.6,8.9
		c-8.8,2.9-14-4.4-24.2-0.9C13.2,10.1,11,13.9,11,13.9z"/>
	<polygon fill="#FFE17D" points="8.5,14.1 21,41.6 23.6,40.4 11.2,12.9 	"/>
</g>
</svg>
