<?xml version="1.0" encoding="utf-8"?>
<!-- Generator: Adobe Illustrator 18.1.0, SVG Export Plug-In . SVG Version: 6.00 Build 0)  -->
<svg version="1.1" id="Layer_1" xmlns="http://www.w3.org/2000/svg" xmlns:xlink="http://www.w3.org/1999/xlink" x="0px" y="0px"
	width="64px" height="128px" viewBox="0 0 64 128" enable-background="new 0 0 64 128" xml:space="preserve">
<rect width="64px" height="128px" fill="green" opacity="0.0" />
<g>
	<path fill="#E8E8E8" d="M32,0H12C9.9,0,8,1.7,8,3.8v40.4c0,2.1,1.9,3.8,4,3.8h8.3L32,64V0z"/>
	<path fill="#E0E0E0" d="M32,0h20c2.1,0,4,1.7,4,3.8v40.4c0,2.1-1.9,3.8-4,3.8h-8.3L32,64V0z"/>
</g>
</svg>
