<?xml version="1.0" encoding="utf-8"?>
<!-- Generator: Adobe Illustrator 18.1.0, SVG Export Plug-In . SVG Version: 6.00 Build 0)  -->
<svg version="1.1" id="Layer_1" xmlns="http://www.w3.org/2000/svg" xmlns:xlink="http://www.w3.org/1999/xlink" x="0px" y="0px"
	width="64px" height="128px" viewBox="0 0 64 128" enable-background="new 0 0 64 128" xml:space="preserve">
<rect width="64px" height="128px" fill="green" opacity="0.0" />
<g>
	<path fill="#D9505B" d="M12,20c0,8.2,5,15.3,12.1,18.4L32,64V0C21,0,12,9,12,20z"/>
	<path fill="#C93F4A" d="M52,20C52,9,43,0,32,0v64l7.9-25.6C47,35.3,52,28.2,52,20z"/>
</g>
</svg>
