<?xml version="1.0" encoding="utf-8"?>
<!-- Generator: Adobe Illustrator 18.1.0, SVG Export Plug-In . SVG Version: 6.00 Build 0)  -->
<svg version="1.1" id="Layer_1" xmlns="http://www.w3.org/2000/svg" xmlns:xlink="http://www.w3.org/1999/xlink" x="0px" y="0px"
	width="64px" height="128px" viewBox="0 0 64 128" enable-background="new 0 0 64 128" xml:space="preserve">
<rect width="64px" height="128px" fill="green" opacity="0.0" />
<g>
	<path fill="#4D4D4D" d="M17.7,22.1L33,61.2c0.4,1-0.1,2.2-1.1,2.6h0c-1,0.4-2.2-0.1-2.6-1.1L13.9,23.5L17.7,22.1z"/>
	<g>
		<circle fill="#FFAE00" cx="12" cy="12" r="12"/>
		<path fill="#F2A500" d="M18.8,2.2C20.2,4.1,21,6.5,21,9c0,6.6-5.4,12-12,12c-2.5,0-4.9-0.8-6.8-2.2C4.3,22,7.9,24,12,24
			c6.6,0,12-5.4,12-12C24,7.9,22,4.3,18.8,2.2z"/>
		<circle opacity="0.25" fill="#FFFFFF" cx="8.1" cy="8.1" r="3.7"/>
	</g>
</g>
</svg>
