<?xml version="1.0" encoding="utf-8"?>
<!-- Generator: Adobe Illustrator 18.1.0, SVG Export Plug-In . SVG Version: 6.00 Build 0)  -->
<svg version="1.1" id="Layer_1" xmlns="http://www.w3.org/2000/svg" xmlns:xlink="http://www.w3.org/1999/xlink" x="0px" y="0px"
	width="64px" height="128px" viewBox="0 0 64 128" enable-background="new 0 0 64 128" xml:space="preserve">
<rect width="64px" height="128px" fill="green" opacity="0.0" />
<g>
	<path fill="#4D4D4D" d="M32,64L32,64c0,0-2-5.9-2-7V2c0-1.1,0.9-2,2-2h0c1.1,0,2,0.9,2,2v55C34,58.1,32,64,32,64z"/>
	<g>
		<path fill="#E0E0E0" d="M50,40c0-6.3-4.1-11.7-10-14.3V9.8c3.6-2.2,6-5.8,6-9.8H32v40H50z"/>
		<path fill="#E8E8E8" d="M24,9.8v15.8c-5.9,2.6-10,8-10,14.3h18V0H18C18,4.1,20.4,7.7,24,9.8z"/>
	</g>
</g>
</svg>
