<?xml version="1.0" encoding="utf-8"?>
<!-- Generator: Adobe Illustrator 18.1.0, SVG Export Plug-In . SVG Version: 6.00 Build 0)  -->
<svg version="1.1" id="Layer_1" xmlns="http://www.w3.org/2000/svg" xmlns:xlink="http://www.w3.org/1999/xlink" x="0px" y="0px"
	width="128px" height="128px" viewBox="0 0 128 128" enable-background="new 0 0 128 128" xml:space="preserve">
<rect width="128px" height="128px" fill="green" opacity="0.0" />
<g>
	<rect y="0" fill="#FFFFFF" width="60" height="39.8"/>
	<g>
		<rect x="50" fill="#7F76BC" width="10" height="10"/>
		<rect x="50" y="20" fill="#7F76BC" width="10" height="10"/>
		<rect x="40" y="10" fill="#7F76BC" width="10" height="10"/>
		<rect x="30" fill="#7F76BC" width="10" height="10"/>
		<rect x="30" y="20" fill="#7F76BC" width="10" height="10"/>
		<rect x="10" fill="#7F76BC" width="10" height="10"/>
		<rect x="10" y="20" fill="#7F76BC" width="10" height="10"/>
		<rect x="20" y="10" fill="#7F76BC" width="10" height="10"/>
		<rect x="40" y="30" fill="#7F76BC" width="10" height="10"/>
		<rect x="20" y="30" fill="#7F76BC" width="10" height="10"/>
		<rect y="10" fill="#7F76BC" width="10" height="10"/>
		<rect y="30" fill="#7F76BC" width="10" height="10"/>
	</g>
	<path fill="#4D4D4D" d="M62,64L62,64c1.1,0,2-0.9,2-2V2c0-1.1-0.9-2-2-2l-2,0v62C60,63.1,60.9,64,62,64z"/>
</g>
</svg>
