<?xml version="1.0" encoding="utf-8"?>
<!-- Generator: Adobe Illustrator 18.1.0, SVG Export Plug-In . SVG Version: 6.00 Build 0)  -->
<svg version="1.1" id="Layer_1" xmlns="http://www.w3.org/2000/svg" xmlns:xlink="http://www.w3.org/1999/xlink" x="0px" y="0px"
	width="64px" height="128px" viewBox="0 0 64 128" enable-background="new 0 0 64 128" xml:space="preserve">
<rect width="64px" height="128px" fill="green" opacity="0.0" />
<g>
	<path fill="#4D4D4D" d="M30,21v41.7c0,0.7,0.9,1.3,2,1.3c1.1,0,2-0.6,2-1.3V21H30z"/>
	<g>
		<circle fill="#90CAF0" cx="32" cy="12" r="12"/>
		<path fill="#81BDE3" d="M38.8,2.2C40.2,4.1,41,6.5,41,9c0,6.6-5.4,12-12,12c-2.5,0-4.9-0.8-6.8-2.2C24.3,22,27.9,24,32,24
			c6.6,0,12-5.4,12-12C44,7.9,42,4.3,38.8,2.2z"/>
		<circle opacity="0.25" fill="#FFFFFF" cx="28.1" cy="8.1" r="3.7"/>
	</g>
</g>
</svg>
