<?xml version="1.0" encoding="utf-8"?>
<!-- Generator: Adobe Illustrator 18.1.0, SVG Export Plug-In . SVG Version: 6.00 Build 0)  -->
<svg version="1.1" id="Layer_1" xmlns="http://www.w3.org/2000/svg" xmlns:xlink="http://www.w3.org/1999/xlink" x="0px" y="0px"
	width="64px" height="128px" viewBox="0 0 64 128" enable-background="new 0 0 64 128" xml:space="preserve">
<rect width="64px" height="128px" fill="green" opacity="0.0" />
<g>
	<path fill="#4D4D4D" d="M31.3,63.9c0.6,0.3,1.3,0,1.6-0.6l0,0l23.3-51.5c0.3-0.6,0-1.3-0.6-1.6l0,0c-0.6-0.3-1.3,0-1.6,0.6l0,0
		L30.7,62.3c-0.2,0.5-0.1,1,0.3,1.4l0,0C31.1,63.8,31.2,63.8,31.3,63.9L31.3,63.9z"/>
	<path fill="#C93F4A" d="M53,13.9L41.2,40.1c0,0-3.8-6-8.6-8.2c-5.7-2.7-16.2-2.3-21-8.4C5.2,15.2,7.8,0,7.8,0s3.6,6,12.6,8.9
		c8.8,2.9,14-4.4,24.2-0.9C50.8,10.1,53,13.9,53,13.9z"/>
	<polygon fill="#D44E59" points="55.5,14.1 43,41.6 40.4,40.4 52.8,12.9 	"/>
</g>
</svg>
