<?xml version="1.0" encoding="utf-8"?>
<!-- Generator: Adobe Illustrator 18.1.0, SVG Export Plug-In . SVG Version: 6.00 Build 0)  -->
<svg version="1.1" id="Layer_1" xmlns="http://www.w3.org/2000/svg" xmlns:xlink="http://www.w3.org/1999/xlink" x="0px" y="0px"
	width="64px" height="128px" viewBox="0 0 64 128" enable-background="new 0 0 64 128" xml:space="preserve">
<rect width="64px" height="128px" fill="green" opacity="0.0" />
<g>
	<path fill="#4D4D4D" d="M32,64L32,64c-1.1,0-2-0.9-2-2V2c0-1.1,0.9-2,2-2h0c1.1,0,2,0.9,2,2v60C34,63.1,33.1,64,32,64z"/>
	<polygon fill="#C93F4A" points="52,14 64,26 33,26 33,2 64,2 	"/>
	<rect x="30" y="2" fill="#D9505B" width="4" height="24"/>
</g>
</svg>
